1;1;Moeneeb Josephs;31;1
2;2;Itumeleng Khune;31;1
3;3;Shu-Aib Walters;31;1
4;4;Siboniso Gaxa;31;2
5;5;Tsepo Masilela;31;2
6;6;Aaron Mokoena (c);31;2
7;7;Anele Ngcongca;31;2
8;8;Matthew Booth;31;2
9;9;Lucas Thwala;31;2
10;10;Bongani Khumalo;31;2
11;11;Siyabonga Sangweni;31;2
12;12;MacBeth Sibaya;31;3
13;13;Lance Davids;31;3
14;14;Siphiwe Tshabalala;31;3
15;15;Steven Pienaar;31;3
16;16;Teko Modise;31;3
17;17;Reneilwe Letsholonyane;31;3
18;18;Kagisho Dikgacoi;31;3
19;19;Surprise Moriri;31;3
20;20;Thanduyise Khuboni;31;3
21;21;Katlego Mphela;31;4
22;22;Bernard Parker;31;4
23;23;Siyabonga Nomvethe;31;4
24;1;?scar P?rez;16;1
25;2;Guillermo Ochoa;16;1
26;3;Luis Ernesto Michel;16;1
27;4;Francisco Rodr?guez;16;2
28;5;Carlos Salcido;16;2
29;6;Rafael M?rquez (c);16;2
30;7;Ricardo Osorio;16;2
31;8;Paul Aguilar;16;2
32;9;H?ctor Moreno;16;2
33;10;Efra?n Ju?rez;16;2
34;11;Jonny Magall?n;16;2
35;12;Jorge Torres Nilo;16;2
36;13;Gerardo Torrado;16;3
37;14;Pablo Barrera;16;3
38;15;Israel Castro;16;3
39;16;Andr?s Guardado;16;3
40;17;Alberto Medina;16;3
41;18;Guillermo Franco;16;4
42;19;Cuauht?moc Blanco;16;4
43;20;Carlos Vela;16;4
44;21;Javier Hern?ndez;16;4
45;22;Giovani dos Santos;16;4
46;23;Adolfo Bautista;16;4
47;1;Fernando Muslera;27;1
48;2;Juan Castillo;27;1
49;3;Mart?n Silva;27;1
50;4;Diego Lugano (c);27;2
51;5;Diego God?n;27;2
52;6;Jorge Fucile;27;2
53;7;Mauricio Victorino;27;2
54;8;Maxi Pereira;27;2
55;9;Andr?s Scotti;27;2
56;10;Mart?n C?ceres;27;2
57;11;Walter Gargano;27;3
58;12;Sebasti?n Eguren;27;3
59;13;?lvaro Pereira;27;3
60;14;Nicol?s Lodeiro;27;3
61;15;Diego P?rez;27;3
62;16;Egidio Ar?valo R?os;27;3
63;17;Ignacio Gonz?lez;27;3
64;18;?lvaro Fern?ndez;27;3
65;19;Edinson Cavani;27;4
66;20;Luis Su?rez;27;4
67;21;Diego Forl?n;27;4
68;22;Sebasti?n Abreu;27;4
69;23;Sebasti?n Fern?ndez;27;4
70;1;Hugo Lloris;28;1
71;2;Steve Mandanda;28;1
72;3;C?dric Carrasso;28;1
73;4;Bacary Sagna;28;2
74;5;?ric Abidal;28;2
75;6;Anthony R?veill?re;28;2
76;7;William Gallas;28;2
77;8;Marc Planus;28;2
78;9;Patrice Evra (c);28;2
79;10;S?bastien Squillaci;28;2
80;11;Ga?l Clichy;28;2
81;12;Franck Rib?ry;28;3
82;13;Yoann Gourcuff;28;3
83;14;J?r?my Toulalan;28;3
84;15;Florent Malouda;28;3
85;16;Alou Diarra;28;3
86;17;Abou Diaby;28;3
87;18;Mathieu Valbuena;28;3
88;19;Djibril Ciss?;28;4
89;20;Sidney Govou;28;4
90;21;Andr?-Pierre Gignac;28;4
91;22;Thierry Henry;28;4
92;23;Nicolas Anelka;28;4
93;1;Diego Pozo;4;1
94;2;Mariano And?jar;4;1
95;3;Sergio Romero;4;1
96;4;Mart?n Demichelis;4;2
97;5;Clemente Rodr?guez;4;2
98;6;Nicol?s Burdisso;4;2
99;7;Gabriel Heinze;4;2
100;8;Ariel Garc?;4;2
101;9;Walter Samuel;4;2
102;10;Nicol?s Otamendi;4;2
103;11;Mario Bolatti;4;3
104;12;?ngel di Mar?a;4;3
105;13;Juan Sebasti?n Ver?n;4;3
106;14;Javier Mascherano (c);4;3
107;15;Jon?s Guti?rrez;4;3
108;16;Maxi Rodr?guez;4;3
109;17;Javier Pastore;4;3
110;18;Gonzalo Higua?n;4;4
111;19;Lionel Messi;4;4
112;20;Carlos T?vez;4;4
113;21;Sergio Ag?ero;4;4
114;22;Mart?n Palermo;4;4
115;23;Diego Milito;4;4
116;1;Vincent Enyeama;17;1
117;2;Austin Ejide;17;1
118;3;Dele Aiyenugba;17;1
119;4;Joseph Yobo (c);17;2
120;5;Taye Taiwo;17;2
121;6;Rabiu Afolabi;17;2
122;7;Danny Shittu;17;2
123;8;Chidi Odiah;17;2
124;9;Uwa Echi?jil?;17;2
125;10;Dele Adeleye;17;2
126;11;Ayila Yussuf;17;3
127;12;Sani Kaita;17;3
128;13;Lukman Haruna;17;3
129;14;Dickson Etuhu;17;3
130;15;Nwankwo Kanu;17;4
131;16;John Utaka;17;4
132;17;Yakubu Aiyegbeni;17;4
133;18;Obafemi Martins;17;4
134;19;Brown Ideye[4];17;4
135;20;Peter Odemwingie;17;4
136;21;Kalu Uche;17;4
137;22;Victor Obinna;17;4
138;23;Chinedu Obasi;17;4
139;1;Lee Woon-Jae;22;1
140;2;Jung Sung-Ryong;22;1
141;3;Kim Young-Kwang;22;1
142;4;Oh Beom-Seok;22;2
143;5;Kim Hyung-Il;22;2
144;6;Lee Young-Pyo;22;2
145;7;Lee Jung-Soo;22;2
146;8;Kim Dong-Jin;22;2
147;9;Cha Du-Ri;22;2
148;10;Kang Min-Soo;22;2
149;11;Cho Yong-Hyung;22;3
150;12;Kim Nam-Il;22;3
151;13;Kim Bo-Kyung;22;3
152;14;Park Ji-Sung (c);22;3
153;15;Kim Jae-Sung;22;3
154;16;Ki Sung-Yong;22;3
155;17;Lee Chung-Yong;22;3
156;18;Kim Jung-Woo;22;4
157;19;Ahn Jung-Hwan;22;4
158;20;Park Chu-Young;22;4
159;21;Lee Seung-Yeoul;22;4
160;22;Yeom Ki-Hun;22;4
161;23;Lee Dong-Gook;22;4
162;1;Kostas Chalkias;8;1
163;2;Alexandros Tzorvas;8;1
164;3;Michalis Sifakis;8;1
165;4;Giourkas Seitaridis;8;2
166;5;Christos Patsatzoglou;8;2
167;6;Vangelis Moras;8;2
168;7;Avraam Papadopoulos;8;2
169;8;Loukas Vyntra;8;2
170;9;Vasilis Torosidis;8;2
171;10;Sotirios Kyrgiakos;8;2
172;11;Sokratis Papastathopoulos;8;2
173;12;Stelios Malezas;8;2
174;13;Nikos Spiropoulos;8;3
175;14;Alexandros Tziolis;8;3
176;15;Giorgos Karagounis (c);8;3
177;16;Sotiris Ninis;8;3
178;17;Kostas Katsouranis;8;3
179;18;Sakis Prittas;8;3
180;19;Georgios Samaras;8;4
181;20;Angelos Charisteas;8;4
182;21;Dimitris Salpingidis;8;4
183;22;Theofanis Gekas;8;4
184;23;Pantelis Kapetanos;8;4
185;1;David James;3;1
186;2;Robert Green;3;1
187;3;Joe Hart;3;1
188;4;Glen Johnson;3;2
189;5;Ashley Cole;3;2
190;6;Michael Dawson[5];3;2
191;7;John Terry;3;2
192;8;Stephen Warnock;3;2
193;9;Matthew Upson;3;2
194;10;Jamie Carragher;3;2
195;11;Ledley King;3;2
196;12;Steven Gerrard (c);3;3
197;13;Aaron Lennon;3;3
198;14;Frank Lampard;3;3
199;15;Joe Cole;3;3
200;16;Gareth Barry;3;3
201;17;James Milner;3;3
202;18;Shaun Wright-Phillips;3;3
203;19;Michael Carrick;3;3
204;20;Peter Crouch;3;4
205;21;Wayne Rooney;3;4
206;22;Jermain Defoe;3;4
207;23;Emile Heskey;3;4
208;1;Tim Howard;26;1
209;2;Brad Guzan;26;1
210;3;Marcus Hahnemann;26;1
211;4;Jonathan Spector;26;2
212;5;Carlos Bocanegra (c);26;2
213;6;Oguchi Onyewu;26;2
214;7;Steve Cherundolo;26;2
215;8;Jonathan Bornstein;26;2
216;9;Jay DeMerit;26;2
217;10;Clarence Goodson;26;2
218;11;Michael Bradley;26;3
219;12;DaMarcus Beasley;26;3
220;13;Clint Dempsey;26;3
221;14;Landon Donovan;26;3
222;15;Stuart Holden;26;3
223;16;Ricardo Clark;26;3
224;17;Jos? Francisco Torres;26;3
225;18;Maurice Edu;26;3
226;19;Benny Feilhaber;26;3
227;20;Herculez Gomez;26;4
228;21;Edson Buddle;26;4
229;22;Jozy Altidore;26;4
230;23;Robbie Findley;26;4
231;1;Loun?s Gaouaoui;2;1
232;2;Faouzi Chaouchi;2;1
233;3;Ra?s M'Bohli;2;1
234;4;Madjid Bougherra;2;2
235;5;Nadir Belhadj;2;2
236;6;Antar Yahia (c);2;2
237;7;Rafik Halliche;2;2
238;8;Habib Bella?d;2;2
239;9;Abdelkader La?faoui;2;2
240;10;Carl Medjani;2;2
241;11;Djamel Mesbah;2;2
242;12;Yazid Mansouri;2;3
243;13;Ryad Boudebouz;2;3
244;14;Medhi Lacen;2;3
245;15;Karim Ziani;2;3
246;16;Adl?ne Guedioura;2;3
247;17;Hassan Yebda;2;3
248;18;Foued Kadir;2;3
249;19;Djamel Abdoun;2;3
250;20;Abdelkader Ghezzal;2;4
251;21;Rafik Sa?fi;2;4
252;22;Rafik Djebbour;2;4
253;23;Karim Matmour;2;4
254;1;Samir Handanovi?;25;1
255;2;Jasmin Handanovi?;25;1
256;3;Aleksander ?eliga;25;1
257;4;Mi?o Bre?ko;25;2
258;5;Elvedin D?ini?;25;2
259;6;Marko ?uler;25;2
260;7;Bo?tjan Cesar;25;2
261;8;Branko Ili?;25;2
262;9;Bojan Joki?;25;2
263;10;Suad Filekovi?;25;2
264;11;Matej Mavri?;25;2
265;12;Robert Koren (c);25;3
266;13;Rene Krhin;25;3
267;14;Andra? Kirm;25;3
268;15;Aleksandar Radosavljevi?;25;3
269;16;Andrej Komac;25;3
270;17;Dalibor Stevanovi?;25;3
271;18;Nejc Pe?nik;25;4
272;19;Zlatan Ljubijanki?;25;4
273;20;Valter Birsa;25;4
274;21;Milivoje Novakovi?;25;4
275;22;Zlatko Dedi?;25;4
276;23;Tim Matav?;25;4
277;1;Manuel Neuer;7;1
278;2;Tim Wiese;7;1
279;3;Hans-J?rg Butt;7;1
280;4;Marcell Jansen;7;2
281;5;Arne Friedrich;7;2
282;6;Dennis Aogo;7;2
283;7;Serdar Tasci;7;2
284;8;Holger Badstuber;7;2
285;9;Philipp Lahm (c);7;2
286;10;Per Mertesacker;7;2
287;11;J?r?me Boateng;7;2
288;12;Sami Khedira;7;3
289;13;Bastian Schweinsteiger;7;3
290;14;Mesut ?zil;7;3
291;15;Lukas Podolski;7;3
292;16;Thomas M?ller;7;3
293;17;Piotr Trochowski;7;3
294;18;Toni Kroos;7;3
295;19;Marko Marin;7;3
296;20;Stefan Kie?ling;7;4
297;21;Miroslav Klose;7;4
298;22;Cacau;7;4
299;23;Mario G?mez;7;4
300;1;Mark Schwarzer;1;1
301;2;Adam Federici;1;1
302;3;Eugene Galekovi?[6];1;1
303;4;Lucas Neill (c);1;2
304;5;Craig Moore;1;2
305;6;Michael Beauchamp;1;2
306;7;Luke Wilkshire;1;2
307;8;Scott Chipperfield;1;2
308;9;Mark Milligan;1;2
309;10;David Carney;1;2
310;11;Tim Cahill;1;3
311;12;Jason Culina;1;3
312;13;Brett Emerton;1;3
313;14;Vince Grella;1;3
314;15;Mile Jedinak;1;3
315;16;Carl Valeri;1;3
316;17;Richard Garcia;1;3
317;18;Dario Vido?i?;1;3
318;19;Mark Bresciano;1;3
319;20;Joshua Kennedy;1;4
320;21;Harry Kewell;1;4
321;22;Brett Holman;1;4
322;23;Nikita Rukavytsya;1;4
323;1;Vladimir Stojkovi?;23;1
324;2;Bojan Isailovi?;23;1
325;3;An?elko ?uri?i?;23;1
326;4;Antonio Rukavina;23;2
327;5;Aleksandar Kolarov;23;2
328;6;Nemanja Vidi?;23;2
329;7;Branislav Ivanovi?;23;2
330;8;Aleksandar Lukovi?;23;2
331;9;Ivan Obradovi?;23;2
332;10;Neven Suboti?;23;2
333;11;Gojko Ka?ar;23;3
334;12;Zoran To?i?;23;3
335;13;Dejan Stankovi? (c);23;3
336;14;Nenad Milija?;23;3
337;15;Milan Jovanovi?;23;3
338;16;Milo? Krasi?;23;3
339;17;Milo? Ninkovi?;23;3
340;18;Radosav Petrovi?;23;3
341;19;Zdravko Kuzmanovi?;23;3
342;20;Danko Lazovi?;23;4
343;21;Marko Panteli?;23;4
344;22;Nikola ?igi?;23;4
345;23;Dragan Mr?a;23;4
346;1;Daniel Adjei;6;1
347;2;Stephen Ahorlu;6;1
348;3;Richard Kingson;6;1
349;4;Hans Sarpei;6;2
350;5;John Paintsil;6;2
351;6;John Mensah (c);6;2
352;7;Samuel Inkoom;6;2
353;8;Jonathan Mensah;6;2
354;9;Isaac Vorsah;6;2
355;10;Abdul Rahim Ayew;6;2
356;11;Lee Addy;6;2
357;12;Anthony Annan;6;3
358;13;Derek Boateng;6;3
359;14;Stephen Appiah;6;3
360;15;Sulley Muntari;6;3
361;16;Andr? Ayew;6;3
362;17;Quincy Owusu-Abeyie;6;3
363;18;Kwadwo Asamoah;6;3
364;19;Kevin-Prince Boateng;6;3
365;20;Asamoah Gyan;6;4
366;21;Prince Tagoe;6;4
367;22;Matthew Amoah;6;4
368;23;Dominic Adiyiah;6;4
369;1;Maarten Stekelenburg;18;1
370;2;Michel Vorm;18;1
371;3;Sander Boschker;18;1
372;4;Gregory van der Wiel;18;2
373;5;John Heitinga;18;2
374;6;Joris Mathijsen;18;2
375;7;Giovanni van Bronckhorst (c);18;2
376;8;Khalid Boulahrouz;18;2
377;9;Andr? Ooijer;18;2
378;10;Edson Braafheid;18;2
379;11;Mark van Bommel;18;3
380;12;Nigel de Jong;18;3
381;13;Wesley Sneijder;18;3
382;14;Demy de Zeeuw;18;3
383;15;Stijn Schaars;18;3
384;16;Ibrahim Afellay;18;3
385;17;Rafael van der Vaart;18;3
386;18;Dirk Kuyt;18;4
387;19;Robin van Persie;18;4
388;20;Arjen Robben;18;4
389;21;Eljero Elia;18;4
390;22;Ryan Babel;18;4
391;23;Klaas-Jan Huntelaar;18;4
392;1;Thomas Sorensen;10;1
393;2;Stephan Andersen;10;1
394;3;Jesper Christiansen;10;1
395;4;Simon Kj?r;10;2
396;5;Daniel Agger;10;2
397;6;William Kvist;10;2
398;7;Lars Jacobsen;10;2
399;8;Per Kr?ldrup;10;2
400;9;Simon Poulsen;10;2
401;10;Patrick Mtiliga;10;2
402;11;Christian Poulsen;10;3
403;12;Daniel Jensen;10;3
404;13;Jesper Gr?nkj?r;10;3
405;14;Martin J?rgensen;10;3
406;15;Thomas Kahlenberg;10;3
407;16;Jakob Poulsen;10;3
408;17;Mikkel Beckmann;10;3
409;18;Dennis Rommedahl;10;3
410;19;Thomas Enevoldsen;10;3
411;20;Christian Eriksen;10;3
412;21;Jon Dahl Tomasson (c);10;4
413;22;Nicklas Bendtner;10;4
414;23;S?ren Larsen;10;4
415;1;Seigo Narazaki;32;1
416;2;Eiji Kawashima;32;1
417;3;Yoshikatsu Kawaguchi (c);32;1
418;4;Y?ichi Komano;32;2
419;5;Marcus Tulio Tanaka;32;2
420;6;Yuto Nagatomo;32;2
421;7;Atsuto Uchida;32;2
422;8;Daiki Iwamasa;32;2
423;9;Yasuyuki Konno;32;2
424;10;Yuji Nakazawa;32;2
425;11;Yuki Abe;32;3
426;12;Yasuhito End?;32;3
427;13;Shunsuke Nakamura;32;3
428;14;Kengo Nakamura;32;3
429;15;Makoto Hasebe (vc);32;3
430;16;Keisuke Honda;32;3
431;17;Junichi Inamoto;32;3
432;18;Daisuke Matsui;32;4
433;19;Shinji Okazaki;32;4
434;20;Keiji Tamada;32;4
435;21;Kisho Yano;32;4
436;22;Yoshito ?kubo;32;4
437;23;Takayuki Morimoto;32;4
438;1;Carlos Kameni;13;1
439;2;Souleymanou Hamidou;13;1
440;3;Guy N'dy Assemb?;13;1
441;4;Beno?t Assou-Ekotto;13;2
442;5;Nicolas N'Koulou;13;2
443;6;Rigobert Song;13;2
444;7;S?bastien Bassong;13;2
445;8;Geremi;13;2
446;9;Ga?tan Bong;13;2
447;10;Aur?lien Chedjou;13;2
448;11;St?phane Mbia;13;2
449;12;Alex Song;13;3
450;13;Landry N'Gu?mo;13;3
451;14;Achille Emana;13;3
452;15;Jean Makoun;13;3
453;16;Eyong Enoh;13;3
454;17;Georges Mandjeck;13;3
455;18;Jo?l Matip;13;3
456;19;Samuel Eto'o (c);13;4
457;20;Eric Choupo-Moting;13;4
458;21;Pierre Web?;13;4
459;22;Mohammadou Idrissou;13;4
460;23;Vincent Aboubakar;13;4
461;1;Gianluigi Buffon;12;1
462;2;Federico Marchetti;12;1
463;3;Morgan De Sanctis;12;1
464;4;Christian Maggio;12;2
465;5;Domenico Criscito;12;2
466;6;Giorgio Chiellini;12;2
467;7;Fabio Cannavaro (c);12;2
468;8;Salvatore Bocchetti;12;2
469;9;Gianluca Zambrotta;12;2
470;10;Leonardo Bonucci;12;2
471;11;Daniele De Rossi;12;3
472;12;Simone Pepe;12;3
473;13;Gennaro Gattuso;12;3
474;14;Claudio Marchisio;12;3
475;15;Mauro Camoranesi;12;3
476;16;Angelo Palombo;12;3
477;17;Andrea Pirlo;12;3
478;18;Riccardo Montolivo;12;3
479;19;Vincenzo Iaquinta;12;4
480;20;Antonio Di Natale;12;4
481;21;Alberto Gilardino;12;4
482;22;Fabio Quagliarella;12;4
483;23;Giampaolo Pazzini;12;4
484;1;Justo Villar (c);20;1
485;2;Diego Barreto;20;1
486;3;Aldo Bobadilla;20;1
487;4;Dar?o Ver?n;20;2
488;5;Claudio Morel;20;2
489;6;Denis Caniza;20;2
490;7;Julio C?sar C?ceres;20;2
491;8;Carlos Bonet;20;2
492;9;Paulo da Silva;20;2
493;10;Aureliano Torres;20;2
494;11;Antol?n Alcaraz;20;2
495;12;?dgar Barreto;20;3
496;13;Jonathan Santana;20;3
497;14;Enrique Vera;20;3
498;15;V?ctor C?ceres;20;3
499;16;Cristian Riveros;20;3
500;17;N?stor Ortigoza;20;3
501;18;?scar Cardozo;20;4
502;19;Roque Santa Cruz;20;4
503;20;?dgar Ben?tez;20;4
504;21;Nelson Valdez;20;4
505;22;Lucas Barrios;20;4
506;23;Rodolfo Gamarra;20;4
507;1;Mark Paston;19;1
508;2;Glen Moss;19;1
509;3;James Bannatyne;19;1
510;4;Ben Sigmund;19;2
511;5;Tony Lochhead;19;2
512;6;Winston Reid;19;2
513;7;Ivan Vicelich;19;2
514;8;Ryan Nelsen (c);19;2
515;9;Andrew Boyens;19;2
516;10;Tommy Smith;19;2
517;11;Simon Elliott;19;3
518;12;Tim Brown;19;3
519;13;Leo Bertos;19;3
520;14;Andy Barron;19;3
521;15;Michael McGlinchey;19;3
522;16;Aaron Clapham;19;3
523;17;David Mulligan;19;3
524;18;Jeremy Christie;19;3
525;19;Jeremy Brockie;19;3
526;20;Shane Smeltz;19;4
527;21;Chris Killen;19;4
528;22;Rory Fallon;19;4
529;23;Chris Wood;19;4
530;1;J?n Mucha;24;1
531;2;Du?an Perni?;24;1
532;3;Du?an Kuciak;24;1
533;4;Peter Pekar?k;24;2
534;5;Martin ?krtel;24;2
535;6;Marek ?ech;24;2
536;7;Radoslav Zabavn?k;24;2
537;8;J?n ?urica;24;2
538;9;Kornel Sal?ta;24;2
539;10;Martin Petr??;24;2
540;11;Zdeno ?trba;24;3
541;12;Vladim?r Weiss;24;3
542;13;J?n Koz?k;24;3
543;14;Stanislav ?est?k;24;3
544;15;Marek Sapara;24;3
545;16;Miroslav Stoch;24;3
546;17;Marek Ham??k (c);24;3
547;18;Juraj Kucka;24;3
548;19;Kamil Kop?nek;24;3
549;20;R?bert Vittek;24;4
550;21;Filip Holo?ko;24;4
551;22;Martin Jakubko;24;4
552;23;Erik Jendri?ek;24;4
553;1;J?lio C?sar;5;1
554;2;Gomes;5;1
555;3;Doni;5;1
556;4;Maicon;5;2
557;5;L?cio (c);5;2
558;6;Juan;5;2
559;7;Michel Bastos;5;2
560;8;Daniel Alves;5;2
561;9;Luis?o;5;2
562;10;Thiago Silva;5;2
563;11;Gilberto;5;2
564;12;Felipe Melo;5;3
565;13;Elano;5;3
566;14;Gilberto Silva;5;3
567;15;Kak?;5;3
568;16;Josu?;5;3
569;17;Ramires;5;3
570;18;J?lio Baptista;5;3
571;19;Kl?berson;5;3
572;20;Lu?s Fabiano;5;4
573;21;Robinho;5;4
574;22;Nilmar;5;4
575;23;Grafite;5;4
576;1;Ri Myong-Guk;14;1
577;2;Kim Myong-Gil;14;1
578;3;Kim Myong-Won[8];14;1
579;4;Cha Jong-Hyok;14;2
580;5;Ri Jun-Il;14;2
581;6;Ri Kwang-Chon;14;2
582;7;Ji Yun-Nam;14;2
583;8;Pak Chol-Jin;14;2
584;9;Pak Nam-Chol;14;2
585;10;Nam Song-Chol;14;2
586;11;Ri Kwang-Hyok;14;2
587;12;Pak Nam-Chol;14;3
588;13;Kim Kum-Il;14;3
589;14;Mun In-Guk;14;3
590;15;Kim Yong-Jun;14;3
591;16;An Yong-Hak;14;3
592;17;Ri Chol-Myong;14;3
593;18;Kim Kyong-Il;14;3
594;19;Pak Sung-Hyok;14;3
595;20;An Chol-Hyok;14;4
596;21;Jong Tae-Se;14;4
597;22;Hong Yong-Jo (c);14;4
598;23;Choe Kum-Chol;14;4
599;1;Boubacar Barry;15;1
600;2;Aristide Zogbo;15;1
601;3;Daniel Yeboah;15;1
602;4;Benjamin Angoua;15;2
603;5;Arthur Boka;15;2
604;6;Kolo Tour?;15;2
605;7;Steve Gohouri;15;2
606;8;Siaka Ti?n?;15;2
607;9;Guy Demel;15;2
608;10;Emmanuel Ebou?;15;2
609;11;Sol Bamba;15;2
610;12;Didier Zokora;15;3
611;13;Cheick Tiot?;15;3
612;14;Jean-Jacques Gosso;15;3
613;15;Romaric;15;3
614;16;Emmanuel Kon?;15;3
615;17;Kader Ke?ta;15;3
616;18;Yaya Tour?;15;3
617;19;Seydou Doumbia;15;4
618;20;Salomon Kalou;15;4
619;21;Gervinho;15;4
620;22;Didier Drogba (c);15;4
621;23;Aruna Dindane;15;4
622;1;Eduardo;21;1
623;2;Beto;21;1
624;3;Daniel Fernandes;21;1
625;4;Bruno Alves;21;2
626;5;Paulo Ferreira;21;2
627;6;Rolando;21;2
628;7;Duda;21;2
629;8;Ricardo Carvalho;21;2
630;9;Miguel;21;2
631;10;Pepe;21;2
632;11;Ricardo Costa;21;2
633;12;F?bio Coentr?o;21;2
634;13;Pedro Mendes;21;3
635;14;Danny;21;3
636;15;Sim?o;21;3
637;16;Miguel Veloso;21;3
638;17;Raul Meireles;21;3
639;18;Ruben Amorim[9];21;3
640;19;Tiago;21;3
641;20;Deco;21;3
642;21;Cristiano Ronaldo (c);21;4
643;22;Li?dson;21;4
644;23;Hugo Almeida;21;4
645;1;Iker Casillas (c);11;1
646;2;V?ctor Vald?s;11;1
647;3;Pepe Reina;11;1
648;4;Ra?l Albiol;11;2
649;5;Gerard Piqu?;11;2
650;6;Carlos Marchena;11;2
651;7;Carles Puyol;11;2
652;8;Joan Capdevila;11;2
653;9;Sergio Ramos;11;2
654;10;?lvaro Arbeloa;11;2
655;11;Andr?s Iniesta;11;3
656;12;Xavi;11;3
657;13;Cesc F?bregas;11;3
658;14;Juan Mata;11;3
659;15;Xabi Alonso;11;3
660;16;Sergio Busquets;11;3
661;17;Javi Mart?nez;11;3
662;18;David Silva;11;3
663;19;Jes?s Navas;11;3
664;20;David Villa;11;4
665;21;Fernando Torres;11;4
666;22;Pedro;11;4
667;23;Fernando Llorente;11;4
668;1;Diego Benaglio;30;1
669;2;Marco W?lfli;30;1
670;3;Johnny Leoni;30;1
671;4;Stephan Lichtsteiner;30;2
672;5;Ludovic Magnin;30;2
673;6;Philippe Senderos;30;2
674;7;Steve von Bergen;30;2
675;8;St?phane Grichting;30;2
676;9;Reto Ziegler;30;2
677;10;Mario Eggimann;30;2
678;11;Benjamin Huggel;30;3
679;12;Tranquillo Barnetta;30;3
680;13;G?khan Inler;30;3
681;14;Valon Behrami;30;3
682;15;Marco Padalino;30;3
683;16;Hakan Yakin;30;3
684;17;Gelson Fernandes;30;3
685;18;Pirmin Schwegler;30;3
686;19;Xherdan Shaqiri;30;3
687;20;Alexander Frei (c);30;4
688;21;Blaise Nkufo;30;4
689;22;Albert Bunjaku;30;4
690;23;Eren Derdiyok;30;4
691;1;Ricardo Canales;9;1
692;2;Noel Valladares;9;1
693;3;Donis Escober;9;1
694;4;Osman Ch?vez;9;2
695;5;Maynor Figueroa;9;2
696;6;Johnny Palacios;9;2
697;7;V?ctor Bern?rdez;9;2
698;8;Oscar Garc?a;9;2
699;9;Mauricio Sabill?n;9;2
700;10;Emilio Izaguirre;9;2
701;11;Sergio Mendoza;9;2
702;12;Hendry Thomas;9;3
703;13;Ram?n N??ez;9;3
704;14;Wilson Palacios;9;3
705;15;Edgar ?lvarez;9;3
706;16;Danilo Turcios;9;3
707;17;Amado Guevara (c);9;3
708;18;Carlos Pav?n;9;4
709;19;Jerry Palacios[10];9;4
710;20;David Suazo;9;4
711;21;Georgie Welcome;9;4
712;22;Roger Espinoza;9;4
713;23;Walter Mart?nez;9;4
714;1;Claudio Bravo (c);29;1
715;2;Miguel Pinto;29;1
716;3;Luis Mar?n;29;1
717;4;Ismael Fuentes;29;2
718;5;Waldo Ponce;29;2
719;6;Pablo Contreras;29;2
720;7;Arturo Vidal;29;2
721;8;Gary Medel;29;2
722;9;Gonzalo Jara;29;2
723;10;Mauricio Isla;29;3
724;11;Carlos Carmona;29;3
725;12;Jorge Valdivia;29;3
726;13;Marco Estrada;29;3
727;14;Mat?as Fern?ndez;29;3
728;15;Gonzalo Fierro;29;3
729;16;Rodrigo Millar;29;3
730;17;Rodrigo Tello;29;3
731;18;Alexis S?nchez;29;4
732;19;Humberto Suazo;29;4
733;20;Mark Gonz?lez;29;4
734;21;Jean Beausejour;29;4
735;22;Fabi?n Orellana;29;4
736;23;Esteban Paredes;29;4
